Hyeonghwan
…
(e)

Tangent p/f에서 CME, Nasdaq의 비중은 각각 36%, 37%로 이미 30%를 초과하였습니다. 따라서 30%를 초과보유할 주식을 선정할 때 두 주식을 선정한다면 최적포트폴리오는 (d)의 Tangent p/f와 동일할 것 입니다.

한편, ICE를 선정한다면 (d)의 Tangent p/f 구성이 불가능합니다. 이 경우 새로운 efficient frontier는 아래와 같이 도식화할 수 있으며, 새로운 최적포트폴리오는 ICE의 비중이 정확히 30%일 때 결정됩니다.

# Set ice>=0.3
portfolio2 <- portfolio %>% filter(ice>=0.3)
sharpe2=max(portfolio2$sharpe)
tangent2 <- tibble(vol=seq(0.1,0.14,0.01)) %>% 
  mutate(return=monthly_stat$avg_rf[1]+sharpe2*vol)

portfolio2 %>% arrange(desc(sharpe))

# A tibble: 1,905 × 6
     cme   ice  ndaq return   vol sharpe
   <dbl> <dbl> <dbl>  <dbl> <dbl>  <dbl>
 1 0.34    0.3 0.36   0.176 0.119   1.36
 2 0.34    0.3 0.36   0.176 0.119   1.36
 3 0.345   0.3 0.355  0.176 0.119   1.36
 4 0.345   0.3 0.355  0.176 0.119   1.36
 5 0.335   0.3 0.365  0.176 0.119   1.36
 6 0.335   0.3 0.365  0.176 0.119   1.36
 7 0.35    0.3 0.35   0.176 0.119   1.36
 8 0.35    0.3 0.35   0.176 0.119   1.36
 9 0.33    0.3 0.37   0.176 0.119   1.36
10 0.33    0.3 0.37   0.176 0.119   1.36
# ℹ 1,895 more rows
…
